<?xml version="1.0" encoding="utf-8"?>
<!-- Svg Vector Icons : http://www.onlinewebfonts.com/icon -->
<!DOCTYPE svg PUBLIC "-//W3C//DTD SVG 1.1//EN" "http://www.w3.org/Graphics/SVG/1.1/DTD/svg11.dtd">
<svg version="1.1" xmlns="http://www.w3.org/2000/svg" xmlns:xlink="http://www.w3.org/1999/xlink" x="0px" y="0px" viewBox="0 0 1000 1000" enable-background="new 0 0 1000 1000" xml:space="preserve">
<metadata> Svg Vector Icons : http://www.onlinewebfonts.com/icon </metadata>
<g><path d="M706.2,610.3H400c-13.5,0-24.5,11-24.5,24.5c0,13.5,11,24.5,24.5,24.5h306.2c13.5,0,24.5-11,24.5-24.5C730.7,621.3,719.7,610.3,706.2,610.3z M210.2,340.8c8,0,14.8-5.1,17.3-12.2h1.1v-147c0-27.1,21.9-49,49-49H400v-1.1c7.1-2.5,12.3-9.3,12.3-17.3c0-8-5.1-14.8-12.3-17.3v-1.1H265.3c-40.6,0-73.5,32.9-73.5,73.5v159.2h1.1C195.4,335.7,202.2,340.8,210.2,340.8z M706.2,708.3H583.7c-13.5,0-24.5,11-24.5,24.5c0,13.5,11,24.5,24.5,24.5h122.5c13.5,0,24.5-11,24.5-24.5C730.7,719.3,719.7,708.3,706.2,708.3z M583.7,328.6H400c-13.5,0-24.5,11-24.5,24.5c0,13.5,11,24.5,24.5,24.5h183.7c13.5,0,24.5-11,24.5-24.5C608.2,339.6,597.3,328.6,583.7,328.6z M706.2,512.3H400c-13.5,0-24.5,11-24.5,24.5s11,24.5,24.5,24.5h306.2c13.5,0,24.5-11,24.5-24.5C730.7,523.3,719.7,512.3,706.2,512.3z M706.2,426.6H400c-13.5,0-24.5,11-24.5,24.5c0,13.5,11,24.5,24.5,24.5h306.2c13.5,0,24.5-11,24.5-24.5C730.7,437.5,719.7,426.6,706.2,426.6z M840.9,95.9H547v1.1c-7.1,2.5-12.2,9.3-12.2,17.3c0,8,5.1,14.8,12.2,17.3v1.1h281.7c27,0,49,21.9,49,49v722.6c0,27.1-21.9,49-49,49H277.5c-27.1,0-49-21.9-49-49V487.8h-1.1c-2.5-7.1-9.3-12.2-17.3-12.2c-8,0-14.8,5.1-17.3,12.2h-1.1v428.7c0,40.6,32.9,73.5,73.5,73.5h575.7c40.6,0,73.5-32.9,73.5-73.5V169.4C914.4,128.8,881.5,95.9,840.9,95.9z M243.1,454.8c4.9,8.4,15.9,11.3,24.4,6.4L538.2,42.7c8.5-4.8,11.5-15.6,6.5-24c-4.9-8.4-15.9-11.3-24.4-6.4L256.8,419.7l-143.7-86.5c-8.8-5.1-20-2.1-25.1,6.7c-5.1,8.8-2.1,20,6.7,25.1l148.1,89.2C242.9,454.4,243,454.6,243.1,454.8z"/></g>
</svg>