<?xml version="1.0" encoding="iso-8859-1"?>
<!-- Generator: Adobe Illustrator 19.0.0, SVG Export Plug-In . SVG Version: 6.00 Build 0)  -->
<svg version="1.1" id="Layer_1" xmlns="http://www.w3.org/2000/svg" xmlns:xlink="http://www.w3.org/1999/xlink" x="0px" y="0px"
	 viewBox="0 0 512 512" style="enable-background:new 0 0 512 512;" xml:space="preserve">
<path style="fill:#E7ECED;" d="M416.166,295.489c0,88.21-71.514,160.608-159.724,160.608S96.718,383.699,96.718,295.489
	c0-88.221,71.514-158.84,159.724-158.84S416.166,207.268,416.166,295.489z"/>
<g>
	<path style="fill:#FFD248;" d="M474.731,146.85c0,24.459-12.597,45.969-31.668,58.395c-20.455-41.816-54.562-75.752-96.505-95.983
		l0.383-0.799C359.41,89.616,380.792,77.2,405.07,77.2C443.542,77.2,474.731,108.378,474.731,146.85z"/>
	<path style="fill:#FFD248;" d="M106.919,77.2c24.747,0,46.469,12.895,58.832,32.339c-41.826,20.338-75.805,54.317-96.143,96.143
		c-19.433-12.352-32.339-34.085-32.339-58.832C37.269,108.378,68.447,77.2,106.919,77.2z"/>
</g>
<path style="fill:#AFB6BB;" d="M443.063,205.245c13.459,27.515,21.02,58.438,21.02,91.128c0,114.682-92.959,207.641-207.641,207.641
	S48.801,411.055,48.801,296.373c0-32.52,7.475-63.293,20.807-90.691c20.338-41.826,54.317-75.805,96.143-96.143
	c21.339-10.382,44.733-17.208,69.395-19.721V50.579h-42.593V7.986h127.779v42.593h-42.593v39.239
	c24.438,2.492,47.63,9.211,68.82,19.444C388.502,129.493,422.608,163.429,443.063,205.245z M256.442,456.097
	c88.21,0,159.724-72.397,159.724-160.608c0-88.221-71.514-158.84-159.724-158.84S96.718,207.268,96.718,295.489
	C96.718,383.699,168.232,456.097,256.442,456.097z"/>
<path d="M482.717,146.85c0-42.809-34.833-77.636-77.647-77.636c-24.125,0-46.612,11.106-61.282,29.974
	c-18.483-8.207-37.956-13.734-58.064-16.462v-24.16h42.593V0H184.566v58.565h42.593v24.16c-20.342,2.759-40.033,8.384-58.719,16.755
	c-14.662-19.069-37.177-30.267-61.521-30.267c-42.809,0-77.636,34.827-77.636,77.636c0,24.347,11.195,46.861,30.263,61.519
	c-12.428,27.705-18.731,57.274-18.731,88.004C40.815,415.27,137.545,512,256.442,512s215.627-96.73,215.627-215.627
	c0-30.91-6.38-60.652-18.962-88.518C471.763,193.184,482.717,170.859,482.717,146.85z M405.07,85.186
	c34.008,0,61.675,27.663,61.675,61.664c0,17.936-7.701,34.689-20.949,46.317c-20.022-36.628-50.538-66.966-87.277-86.761
	C370.16,92.997,387.041,85.186,405.07,85.186z M45.255,146.85c0-34.001,27.663-61.664,61.664-61.664
	c18.247,0,35.199,7.923,46.842,21.547c-36.652,19.903-67.06,50.31-86.96,86.96C53.178,182.052,45.255,165.1,45.255,146.85z
	 M256.442,496.028c-110.09,0-199.655-89.565-199.655-199.655c0-30.585,6.73-59.922,20.003-87.199
	c19.504-40.114,52.338-72.948,92.455-92.455c20.977-10.206,43.421-16.584,66.709-18.957l7.177-0.732V42.593h-42.593V15.972h111.807
	v26.621h-42.593v54.438l7.176,0.732c23.094,2.354,45.352,8.642,66.157,18.69l0.003,0.002c40.218,19.399,73.175,52.179,92.801,92.3
	c13.409,27.41,20.208,56.889,20.208,87.618C456.097,406.463,366.532,496.028,256.442,496.028z"/>
<path d="M256.442,128.663c-44.84,0-86.947,17.279-118.566,48.654c-31.69,31.447-49.144,73.415-49.144,118.172
	c0,92.964,75.234,168.594,167.71,168.594s167.71-75.63,167.71-168.594c0-44.757-17.454-86.725-49.144-118.171
	C343.389,145.942,301.282,128.663,256.442,128.663z M264.428,447.9v-29.956h-15.972V447.9
	c-77.341-4.054-139.538-66.627-143.545-144.424h34.4v-15.972h-34.396c1.935-37.453,17.459-72.301,44.212-98.848
	c26.723-26.516,61.741-41.901,99.329-43.813v28.192h15.972v-28.192c37.588,1.912,72.606,17.296,99.329,43.813
	c26.754,26.547,42.277,61.395,44.212,98.848h-34.396v15.972h34.4C403.966,381.272,341.77,443.846,264.428,447.9z"/>
<polygon points="264.428,194.331 248.456,194.331 248.456,298.797 317.346,367.687 328.641,356.394 264.428,292.182 "/>
<g>
</g>
<g>
</g>
<g>
</g>
<g>
</g>
<g>
</g>
<g>
</g>
<g>
</g>
<g>
</g>
<g>
</g>
<g>
</g>
<g>
</g>
<g>
</g>
<g>
</g>
<g>
</g>
<g>
</g>
</svg>
