<?xml version="1.0" encoding="utf-8"?>
<!-- Svg Vector Icons : http://www.onlinewebfonts.com/icon -->
<!DOCTYPE svg PUBLIC "-//W3C//DTD SVG 1.1//EN" "http://www.w3.org/Graphics/SVG/1.1/DTD/svg11.dtd">
<svg version="1.1" xmlns="http://www.w3.org/2000/svg" xmlns:xlink="http://www.w3.org/1999/xlink" x="0px" y="0px" viewBox="0 0 1000 1000" enable-background="new 0 0 1000 1000" xml:space="preserve">
<metadata> Svg Vector Icons : http://www.onlinewebfonts.com/icon </metadata>
<g><path d="M500,10C229.4,10,10,229.4,10,500c0,270.6,219.4,490,490,490c270.6,0,490-219.4,490-490C990,229.4,770.6,10,500,10L500,10z M500,928.8c-236.8,0-428.8-192-428.8-428.7c0-236.8,192-428.8,428.8-428.8c236.8,0,428.8,192,428.8,428.8C928.8,736.8,736.8,928.8,500,928.8L500,928.8z"/><path d="M874.2,193.8c-9.1,0-19.1,4.4-26.7,11.9L701.1,348.8L516.4,529.4l-13.8,13.5l-14.1-13.3l-38.9-36.7l-2.6-2.4l0,0l-32.6-30.8l-35.2-33.2c-6.4-6-14.9-9.3-23.9-9.3c-9.5,0-18.2,3.6-24.7,10l-1.2,1.2l-1.2,1.2c-6.6,6.6-10.9,16.4-11.7,26.9c-0.9,10.5,1.7,20.9,7.2,28.5l82,114.7l82,114.6c4.6,6.4,10.2,9.9,15.9,9.9c5.5,0,11.1-3.3,15.7-9.3l182.6-234.8l182.6-234.8c12.9-16.6,12.3-37.8,3.7-46.4C884,194.6,878.3,193.8,874.2,193.8z"/></g>
</svg>