<?xml version="1.0" encoding="utf-8"?>
<!-- Svg Vector Icons : http://www.onlinewebfonts.com/icon -->
<!DOCTYPE svg PUBLIC "-//W3C//DTD SVG 1.1//EN" "http://www.w3.org/Graphics/SVG/1.1/DTD/svg11.dtd">
<svg version="1.1" xmlns="http://www.w3.org/2000/svg" xmlns:xlink="http://www.w3.org/1999/xlink" x="0px" y="0px" viewBox="0 0 1000 1000" enable-background="new 0 0 1000 1000" xml:space="preserve">
<metadata> Svg Vector Icons : http://www.onlinewebfonts.com/icon </metadata>
<g><path d="M68.8,480.2C36.3,480.2,10,506.5,10,539v274.4c0,32.5,26.3,58.8,58.8,58.8c32.5,0,58.8-26.3,58.8-58.8V539C127.6,506.5,101.3,480.2,68.8,480.2L68.8,480.2z M597.9,264.6v108.2c-46.3,20.4-86.6,51.3-117.6,90.2V264.6c0-32.5,26.3-58.8,58.8-58.8C571.7,205.8,597.9,232,597.9,264.6L597.9,264.6z M304,88.3c-32.5,0-58.8,26.3-58.8,58.8v666.4c0,32.5,26.3,58.8,58.8,58.8c32.5,0,58.8-26.3,58.8-58.8V147.1C362.8,114.6,336.4,88.3,304,88.3L304,88.3z M725.3,392c-15.3,0-30.6,1.2-45,3.9c-87.4,14.9-160.3,71.3-195.6,148.2c-15.3,32.9-23.9,69.4-23.9,107.8c0,38.4,8.6,74.9,23.9,107.4c8.2,18,18.5,34.5,30.2,50.2c48.6,61.9,124.6,102.3,210.5,102.3c146.2,0,264.6-116.4,264.6-259.9C990,508.4,871.5,392,725.3,392L725.3,392z M725.3,870.2c-59.6,0-114.1-23.6-153.6-60.8c-42.4-40-68.6-95.6-68.6-157.6c0-105.4,76-193.2,177.2-213.6c14.5-3.1,29.4-4.7,45-4.7c122.7,0,222.3,97.6,222.3,218.3C947.5,772.2,848,870.2,725.3,870.2L725.3,870.2z M738.4,726.1l130.5-130.5c8.2-8.2,8.4-21.6,0.3-29.6c-8.1-8.1-21.5-8-29.7,0.2l0,0L709,696.7l-78.9-78.9c-8.1-8.1-21.4-8-29.7,0.3c-8.3,8.3-8.4,21.6-0.3,29.7l78.9,78.9l29.4,29.4L738.4,726.1z"/></g>
</svg>