<?xml version="1.0" encoding="utf-8"?>
<!-- Svg Vector Icons : http://www.onlinewebfonts.com/icon -->
<!DOCTYPE svg PUBLIC "-//W3C//DTD SVG 1.1//EN" "http://www.w3.org/Graphics/SVG/1.1/DTD/svg11.dtd">
<svg version="1.1" xmlns="http://www.w3.org/2000/svg" xmlns:xlink="http://www.w3.org/1999/xlink" x="0px" y="0px" viewBox="0 0 1000 1000" enable-background="new 0 0 1000 1000" xml:space="preserve">
<metadata> Svg Vector Icons : http://www.onlinewebfonts.com/icon </metadata>
<g><path d="M949.6,942.8l-36.3,36.4c-14.3,14.4-37.5,14.4-51.9,0L715,832.2c-35.2,20.7-76.2,32.5-120.1,32.5c-129.4,0-241.3-110.7-245-240H164.8v-61.5h191.3c5.2-22,13.7-42.4,24.4-61.5H164.8v-61.5h263.7c-0.5,0.5-0.7,1.2-1.1,1.7c42.4-38.9,98.3-63.2,160.2-63.2c131.7,0,245.8,114.5,245.8,246.6c0,45.5-12.6,88-34.6,124.3l145.6,146.1C958.8,910.3,964,928.4,949.6,942.8z M587.6,452.5c-91.1,0-165,74.2-165,165.7s81.2,173,172.4,173c91.2,0,165.1-74.2,165.1-165.7C760,534,678.8,452.5,587.6,452.5z M164.8,194.4h430.3v61.5H164.8V194.4L164.8,194.4z M595.1,331.7c-36.6,10.4-71,25.8-101.3,47.2h-329v-61.5h430.3V331.7L595.1,331.7z M656.6,320.4V133H103.3v614.8h260.2c13,45.8,35.2,87.3,65,122.9H103.3c-34,0-61.5-27.6-61.5-61.5V71.5c0-34,27.5-61.5,61.5-61.5h553.3c33.9,0,61.5,27.5,61.5,61.5v249c-10.3-0.9-20.2-3.1-30.7-3.1C676.8,317.4,666.9,319.5,656.6,320.4z"/></g>
</svg>