<?xml version="1.0" encoding="iso-8859-1"?>
<!-- Generator: Adobe Illustrator 19.0.0, SVG Export Plug-In . SVG Version: 6.00 Build 0)  -->
<svg version="1.1" id="Layer_1" xmlns="http://www.w3.org/2000/svg" xmlns:xlink="http://www.w3.org/1999/xlink" x="0px" y="0px"
	 viewBox="0 0 512 512" style="enable-background:new 0 0 512 512;" xml:space="preserve">
<g>
	<polygon style="fill:#E6E6E6;" points="431.646,394.459 431.646,512 152.288,512 118.335,512 80.354,512 80.354,47.369 
		431.646,47.369 450.658,115.322 450.658,150.205 	"/>
	<path style="fill:#E6E6E6;" d="M421.659,58.038c3.122,1.108,6.483,1.716,9.987,1.716H80.354c-8.259,0-15.719-3.337-21.13-8.747
		c-4.35-4.35-7.353-10.011-8.366-16.351c-0.25-1.549-0.381-3.146-0.381-4.779C50.477,13.383,63.848,0,80.354,0h351.292
		c-8.247,0-15.707,3.349-21.118,8.747c-5.411,5.411-8.747,12.883-8.747,21.13c0,1.633,0.131,3.23,0.381,4.779
		C403.902,45.537,411.529,54.451,421.659,58.038z"/>
</g>
<ellipse style="fill:#F9C573;" cx="185.293" cy="211.083" rx="39.15" ry="32.356"/>
<path style="fill:#CCCCCC;" d="M421.659,34.656l21.055,25.098H80.354c-8.259,0-15.719-3.337-21.13-8.747
	c-4.35-4.35-7.353-10.011-8.366-16.351C50.858,34.656,421.659,34.656,421.659,34.656z"/>
<path style="fill:#999999;" d="M461.523,29.877v367.715h-29.877V159.85v-33.953V59.754c-16.494,0-29.865-13.371-29.865-29.877
	c0-8.247,3.337-15.719,8.747-21.13C415.939,3.349,423.399,0,431.646,0C448.152,0,461.523,13.383,461.523,29.877z"/>
<path style="fill:#4D4D4D;" d="M235.665,247.45H114.708v-65.544h120.957L235.665,247.45L235.665,247.45z M126.626,235.533h97.122
	v-41.709h-97.122C126.626,193.824,126.626,235.533,126.626,235.533z"/>
<g>
	<ellipse style="fill:#9BD7F4;" cx="330.341" cy="247.837" rx="54.082" ry="46.621"/>
	<ellipse style="fill:#9BD7F4;" cx="188.928" cy="443.856" rx="39.998" ry="34.481"/>
</g>
<polygon style="fill:#4D4D4D;" points="235.665,475.059 223.748,475.059 223.748,421.433 126.626,421.433 126.626,475.059 
	114.708,475.059 114.708,409.515 235.665,409.515 "/>
<ellipse style="fill:#F9C573;" cx="339.053" cy="290.954" rx="44.912" ry="37.111"/>
<g>
	<rect x="258.312" y="358.479" style="fill:#4D4D4D;" width="138.994" height="11.918"/>
	<rect x="258.312" y="455.988" style="fill:#4D4D4D;" width="138.994" height="11.918"/>
</g>
<ellipse style="fill:#9BD7F4;" cx="245.298" cy="127.029" rx="110.857" ry="39.083"/>
<rect x="258.312" y="423.489" style="fill:#4D4D4D;" width="138.994" height="11.918"/>
<circle style="fill:#F94B54;" cx="174.973" cy="326.659" r="41.705"/>
<g>
	<rect x="258.312" y="390.99" style="fill:#4D4D4D;" width="138.994" height="11.918"/>
	<path style="fill:#4D4D4D;" d="M397.298,161.349H114.708V95.805h282.589V161.349z M126.626,149.431H385.38v-41.709H126.626V149.431
		z"/>
	<path style="fill:#4D4D4D;" d="M114.711,265.963v120.951h120.951V265.963H114.711z M166.756,326.444l-40.126,40.127v-80.254
		L166.756,326.444z M135.043,277.881h80.276l-40.138,40.138L135.043,277.881z M175.181,334.87l40.126,40.126h-80.253L175.181,334.87
		z M183.607,326.444l40.138-40.138v80.276L183.607,326.444z"/>
	<path style="fill:#4D4D4D;" d="M258.307,181.906v152.125h138.99V181.906H258.307z M385.38,193.824v52.028l-24.061-31.642
		l-32.381,44.709l-13.432-27.509l-45.281,75.214V193.824H385.38z M346.531,322.115h-71.723l39.603-65.783L346.531,322.115z
		 M359.794,322.115l-24.931-51.061l26.688-36.849l23.829,31.335v56.574h-25.586V322.115z"/>
</g>
<g>
</g>
<g>
</g>
<g>
</g>
<g>
</g>
<g>
</g>
<g>
</g>
<g>
</g>
<g>
</g>
<g>
</g>
<g>
</g>
<g>
</g>
<g>
</g>
<g>
</g>
<g>
</g>
<g>
</g>
</svg>
