<?xml version="1.0" encoding="utf-8"?>
<!-- Svg Vector Icons : http://www.onlinewebfonts.com/icon -->
<!DOCTYPE svg PUBLIC "-//W3C//DTD SVG 1.1//EN" "http://www.w3.org/Graphics/SVG/1.1/DTD/svg11.dtd">
<svg version="1.1" xmlns="http://www.w3.org/2000/svg" xmlns:xlink="http://www.w3.org/1999/xlink" x="0px" y="0px" viewBox="0 0 1000 1000" enable-background="new 0 0 1000 1000" xml:space="preserve">
<metadata> Svg Vector Icons : http://www.onlinewebfonts.com/icon </metadata>
<g><path d="M355.2,936H62.7V61.7h657.1v143.3c0,14.5,11.8,26.3,26.3,26.3c14.5,0,26.3-11.8,26.3-26.3V61.5c0-28.9-23.5-52.4-52.4-52.4H62.4C33.5,9.1,10,32.6,10,61.5v874.7c0,28.9,23.5,52.4,52.4,52.4h292.7c14.5,0,26.3-11.8,26.3-26.3C381.5,947.8,369.7,936,355.2,936z"/><path d="M641.2,227.2c0-14.5-11.8-26.3-26.3-26.3H173c-14.5,0-26.3,11.8-26.3,26.3c0,14.5,11.8,26.3,26.3,26.3h441.9C629.4,253.5,641.2,241.7,641.2,227.2z"/><path d="M390.8,417.3c0-14.5-11.8-26.3-26.3-26.3H173c-14.5,0-26.3,11.8-26.3,26.3c0,14.5,11.8,26.3,26.3,26.3h191.5C379,443.7,390.8,431.9,390.8,417.3z"/><path d="M292.4,581.2H173c-14.5,0-26.3,11.8-26.3,26.3c0,14.5,11.8,26.3,26.3,26.3h119.4c14.5,0,26.3-11.8,26.3-26.3C318.7,593,306.9,581.2,292.4,581.2z"/><path d="M292.4,771.3H173c-14.5,0-26.3,11.8-26.3,26.3c0,14.5,11.8,26.3,26.3,26.3h119.4c14.5,0,26.3-11.8,26.3-26.3C318.7,783.1,306.9,771.3,292.4,771.3z"/><path d="M560.6,546.7c0,66.4,47.5,116.2,81.3,143.3c-33.8,27.1-81.3,77-81.3,143.3v26.3h254.5v-26.3c0-66.4-47.5-116.2-81.3-143.3c33.8-27.1,81.3-77,81.3-143.3v-26.3H560.6V546.7z M758.4,807.1H617.3c12.4-40.5,50.4-71.6,70.5-85.7c8.5,6,20.3,15,31.9,26.6C739.4,767.4,752.4,787.2,758.4,807.1z M758.4,573c-12.4,40.5-50.4,71.5-70.5,85.7c-20.2-14.2-58.1-45.2-70.5-85.7H758.4z"/><path d="M900.8,471.3c-57.5-57.5-133.9-89.2-215.2-89.2c-81.3,0-157.7,31.7-215.2,89.2c-57.5,57.5-89.2,133.9-89.2,215.2s31.7,157.7,89.2,215.2c57.5,57.5,133.9,89.2,215.2,89.2s157.7-31.7,215.2-89.2c57.5-57.5,89.2-133.9,89.2-215.2C990,605.2,958.3,528.8,900.8,471.3z M685.6,938.3c-138.8,0-251.7-112.9-251.7-251.7c0-138.8,112.9-251.7,251.7-251.7c138.8,0,251.7,112.9,251.7,251.7C937.3,825.3,824.4,938.3,685.6,938.3z"/></g>
</svg>