{
  "project_info": {
    "project_number": "116238608197",
    "firebase_url": "https://carem8-3a4df.firebaseio.com",
    "project_id": "carem8-3a4df",
    "storage_bucket": "carem8-3a4df.appspot.com"
  },
  "client": [
    {
      "client_info": {
        "mobilesdk_app_id": "1:116238608197:android:1255109750e70d97",
        "android_client_info": {
          "package_name": "com.carem8.proitzen"
        }
      },
      "oauth_client": [
        {
          "client_id": "116238608197-5pg9213pllq4kelafvj4382rqam4354u.apps.googleusercontent.com",
          "client_type": 1,
          "android_info": {
            "package_name": "com.carem8.proitzen",
            "certificate_hash": "c4f71151826ac36a284b15abde0511e5bf2192a6"
          }
        },
        {
          "client_id": "116238608197-334qhe59p87iad6tr04atgvfjbt3vgam.apps.googleusercontent.com",
          "client_type": 3
        }
      ],
      "api_key": [
        {
          "current_key": "AIzaSyCO8fMzAd9gjl2DblOAo0yuUrVVBLfVGBs"
        }
      ],
      "services": {
        "appinvite_service": {
          "other_platform_oauth_client": [
            {
              "client_id": "116238608197-334qhe59p87iad6tr04atgvfjbt3vgam.apps.googleusercontent.com",
              "client_type": 3
            },
            {
              "client_id": "116238608197-kmf65gutqtu7poj8fmjpkbf5tfarvobu.apps.googleusercontent.com",
              "client_type": 2,
              "ios_info": {
                "bundle_id": "com.carem8.proitzen1"
              }
            }
          ]
        }
      }
    },
    {
      "client_info": {
        "mobilesdk_app_id": "1:116238608197:android:06ff32d745002f84",
        "android_client_info": {
          "package_name": "com.proitzen.caremate"
        }
      },
      "oauth_client": [
        {
          "client_id": "116238608197-334qhe59p87iad6tr04atgvfjbt3vgam.apps.googleusercontent.com",
          "client_type": 3
        }
      ],
      "api_key": [
        {
          "current_key": "AIzaSyCO8fMzAd9gjl2DblOAo0yuUrVVBLfVGBs"
        }
      ],
      "services": {
        "appinvite_service": {
          "other_platform_oauth_client": [
            {
              "client_id": "116238608197-334qhe59p87iad6tr04atgvfjbt3vgam.apps.googleusercontent.com",
              "client_type": 3
            },
            {
              "client_id": "116238608197-kmf65gutqtu7poj8fmjpkbf5tfarvobu.apps.googleusercontent.com",
              "client_type": 2,
              "ios_info": {
                "bundle_id": "com.carem8.proitzen1"
              }
            }
          ]
        }
      }
    }
  ],
  "configuration_version": "1"
}